[
    {
        "name": "landcollection",
        "policy": "OR('OperatorMSP.member', 'RegulatorMSP.member','RevenueMSP.member','FinanceMSP.member')",
        "requiredPeerCount": 0,
        "maxPeerCount": 4,
        "blockToLive": 0,
        "memberOnlyRead": true,
        "memberOnlyWrite": true,
        "endorsementPolicy": {
            "signaturePolicy": "OR('OperatorMSP.member', 'RegulatorMSP.member','RevenueMSP.member','FinanceMSP.member')"
        }
    },
    {
        "name": "usercollection",
        "policy": "OR('OperatorMSP.member', 'RegulatorMSP.member','RevenueMSP.member','FinanceMSP.member')",
        "requiredPeerCount": 0,
        "maxPeerCount": 4,
        "blockToLive": 0,
        "memberOnlyRead": true,
        "memberOnlyWrite": true,
        "endorsementPolicy": {
            "signaturePolicy": "OR('OperatorMSP.member', 'RegulatorMSP.member','RevenueMSP.member','FinanceMSP.member')"
        }
    },
    {
        "name": "requestcollection",
        "policy": "OR('OperatorMSP.member', 'RegulatorMSP.member','RevenueMSP.member','FinanceMSP.member')",
        "requiredPeerCount": 0,
        "maxPeerCount": 4,
        "blockToLive": 0,
        "memberOnlyRead": true,
        "memberOnlyWrite": true,
        "endorsementPolicy": {
            "signaturePolicy": "OR('OperatorMSP.member', 'RegulatorMSP.member','RevenueMSP.member','FinanceMSP.member')"
        }
    }
]